\relax 
\providecommand\hyper@newdestlabel[2]{}
\@writefile{toc}{\contentsline {chapter}{\numberline {6}Bluetooth-Network}{65}{chapter.6}}
\@writefile{lof}{\addvspace {10\p@ }}
\@writefile{lot}{\addvspace {10\p@ }}
\@writefile{toc}{\contentsline {section}{\numberline {6.1}Goal}{65}{section.6.1}}
\@writefile{toc}{\contentsline {section}{\numberline {6.2}Setting up the Beaglebone}{66}{section.6.2}}
\@writefile{toc}{\contentsline {subsection}{\numberline {6.2.1}Flashing the latest firmware}{66}{subsection.6.2.1}}
\@writefile{toc}{\contentsline {subsection}{\numberline {6.2.2}Accessing the Beaglebone via ssh}{66}{subsection.6.2.2}}
\@writefile{toc}{\contentsline {subsection}{\numberline {6.2.3}Basic Terminal commands}{66}{subsection.6.2.3}}
\@writefile{toc}{\contentsline {subsubsection}{cd,ls}{66}{section*.2}}
\@writefile{toc}{\contentsline {subsubsection}{sudo}{66}{section*.3}}
\@writefile{toc}{\contentsline {subsection}{\numberline {6.2.4}Internet connection with the Beaglebone}{67}{subsection.6.2.4}}
\@writefile{toc}{\contentsline {subsection}{\numberline {6.2.5}Downloading and installing required packages}{68}{subsection.6.2.5}}
\@writefile{toc}{\contentsline {section}{\numberline {6.3}Bluetooth Experiments}{69}{section.6.3}}
\@writefile{toc}{\contentsline {subsection}{\numberline {6.3.1}Check functionality with hci- and gatttool}{69}{subsection.6.3.1}}
\@writefile{toc}{\contentsline {subsection}{\numberline {6.3.2}python-scripting}{69}{subsection.6.3.2}}
\@writefile{toc}{\contentsline {section}{\numberline {6.4}Writing the python code}{69}{section.6.4}}
\@writefile{toc}{\contentsline {section}{\numberline {6.5}Visualising the data}{69}{section.6.5}}
\@setckpt{bluetooth-network}{
\setcounter{page}{70}
\setcounter{equation}{0}
\setcounter{enumi}{0}
\setcounter{enumii}{0}
\setcounter{enumiii}{0}
\setcounter{enumiv}{0}
\setcounter{footnote}{0}
\setcounter{mpfootnote}{0}
\setcounter{part}{0}
\setcounter{chapter}{6}
\setcounter{section}{5}
\setcounter{subsection}{0}
\setcounter{subsubsection}{0}
\setcounter{paragraph}{0}
\setcounter{subparagraph}{0}
\setcounter{figure}{0}
\setcounter{table}{0}
\setcounter{List1}{0}
\setcounter{List2}{0}
\setcounter{List3}{0}
\setcounter{List4}{0}
\setcounter{List5}{0}
\setcounter{List6}{0}
\setcounter{List7}{0}
\setcounter{List8}{0}
\setcounter{List9}{0}
\setcounter{List10}{0}
\setcounter{ContinuedFloat}{0}
\setcounter{Item}{0}
\setcounter{Hfootnote}{8}
\setcounter{bookmark@seq@number}{42}
\setcounter{float@type}{8}
\setcounter{FancyVerbLine}{2}
\setcounter{lstnumber}{725}
\setcounter{section@level}{1}
\setcounter{lstlisting}{0}
}
