\relax 
\providecommand\hyper@newdestlabel[2]{}
\@writefile{toc}{\contentsline {chapter}{\numberline {5}}{26}{chapter.5}}
\@writefile{lof}{\addvspace {10\p@ }}
\@writefile{lot}{\addvspace {10\p@ }}
\@writefile{toc}{\contentsline {section}{\numberline {5.1}The main of the TI-RTOS}{26}{section.5.1}}
\@writefile{toc}{\contentsline {subsection}{\numberline {5.1.1}main tirtos}{26}{subsection.5.1.1}}
\@writefile{lol}{\contentsline {lstlisting}{./C\textendash Code/maintirtos.c}{26}{lstlisting.5.-1}}
\@writefile{toc}{\contentsline {subsection}{\numberline {5.1.2}adc}{28}{subsection.5.1.2}}
\@writefile{lol}{\contentsline {lstlisting}{./C\textendash Code/adc.c}{28}{lstlisting.5.-2}}
\@writefile{toc}{\contentsline {subsection}{\numberline {5.1.3}pwm}{31}{subsection.5.1.3}}
\@writefile{lol}{\contentsline {lstlisting}{./C\textendash Code/pwm.c}{31}{lstlisting.5.-3}}
\@writefile{toc}{\contentsline {subsection}{\numberline {5.1.4}position}{34}{subsection.5.1.4}}
\@writefile{lol}{\contentsline {lstlisting}{./C\textendash Code/position.c}{34}{lstlisting.5.-4}}
\@writefile{toc}{\contentsline {subsection}{\numberline {5.1.5}hall}{37}{subsection.5.1.5}}
\@writefile{lol}{\contentsline {lstlisting}{./C\textendash Code/hall.c}{37}{lstlisting.5.-5}}
\@writefile{toc}{\contentsline {section}{\numberline {5.2}Board Specific files and Configurations}{40}{section.5.2}}
\@writefile{toc}{\contentsline {subsection}{\numberline {5.2.1}Board}{40}{subsection.5.2.1}}
\@writefile{lol}{\contentsline {lstlisting}{./C\textendash Code/Board.h}{40}{lstlisting.5.-6}}
\@writefile{toc}{\contentsline {subsection}{\numberline {5.2.2}MSP EXP432P401R header file}{44}{subsection.5.2.2}}
\@writefile{lol}{\contentsline {lstlisting}{./C\textendash Code/MSP\textunderscore EXP432P401R.h}{44}{lstlisting.5.-7}}
\@writefile{toc}{\contentsline {subsection}{\numberline {5.2.3}MSP EXP432P401R c file}{48}{subsection.5.2.3}}
\@writefile{lol}{\contentsline {lstlisting}{./C\textendash Code/MSP\textunderscore EXP432P401R.c}{48}{lstlisting.5.-8}}
\@setckpt{Coding}{
\setcounter{page}{65}
\setcounter{equation}{0}
\setcounter{enumi}{0}
\setcounter{enumii}{0}
\setcounter{enumiii}{0}
\setcounter{enumiv}{0}
\setcounter{footnote}{0}
\setcounter{mpfootnote}{0}
\setcounter{part}{0}
\setcounter{chapter}{5}
\setcounter{section}{2}
\setcounter{subsection}{3}
\setcounter{subsubsection}{0}
\setcounter{paragraph}{0}
\setcounter{subparagraph}{0}
\setcounter{figure}{0}
\setcounter{table}{0}
\setcounter{List1}{0}
\setcounter{List2}{0}
\setcounter{List3}{0}
\setcounter{List4}{0}
\setcounter{List5}{0}
\setcounter{List6}{0}
\setcounter{List7}{0}
\setcounter{List8}{0}
\setcounter{List9}{0}
\setcounter{List10}{0}
\setcounter{ContinuedFloat}{0}
\setcounter{Item}{0}
\setcounter{Hfootnote}{8}
\setcounter{bookmark@seq@number}{29}
\setcounter{float@type}{8}
\setcounter{FancyVerbLine}{0}
\setcounter{lstnumber}{725}
\setcounter{section@level}{2}
\setcounter{lstlisting}{0}
}
