\relax 
\providecommand\hyper@newdestlabel[2]{}
\@setckpt{Frontpage}{
\setcounter{page}{1}
\setcounter{equation}{0}
\setcounter{enumi}{0}
\setcounter{enumii}{0}
\setcounter{enumiii}{0}
\setcounter{enumiv}{0}
\setcounter{footnote}{0}
\setcounter{mpfootnote}{0}
\setcounter{part}{0}
\setcounter{chapter}{0}
\setcounter{section}{0}
\setcounter{subsection}{0}
\setcounter{subsubsection}{0}
\setcounter{paragraph}{0}
\setcounter{subparagraph}{0}
\setcounter{figure}{0}
\setcounter{table}{0}
\setcounter{List1}{0}
\setcounter{List2}{0}
\setcounter{List3}{0}
\setcounter{List4}{0}
\setcounter{List5}{0}
\setcounter{List6}{0}
\setcounter{List7}{0}
\setcounter{List8}{0}
\setcounter{List9}{0}
\setcounter{List10}{0}
\setcounter{ContinuedFloat}{0}
\setcounter{Item}{0}
\setcounter{Hfootnote}{0}
\setcounter{bookmark@seq@number}{1}
\setcounter{float@type}{4}
\setcounter{FancyVerbLine}{0}
\setcounter{section@level}{0}
}
