\relax 
\providecommand\hyper@newdestlabel[2]{}
\providecommand\HyperFirstAtBeginDocument{\AtBeginDocument}
\HyperFirstAtBeginDocument{\ifx\hyper@anchor\@undefined
\global\let\oldcontentsline\contentsline
\gdef\contentsline#1#2#3#4{\oldcontentsline{#1}{#2}{#3}}
\global\let\oldnewlabel\newlabel
\gdef\newlabel#1#2{\newlabelxx{#1}#2}
\gdef\newlabelxx#1#2#3#4#5#6{\oldnewlabel{#1}{{#2}{#3}}}
\AtEndDocument{\ifx\hyper@anchor\@undefined
\let\contentsline\oldcontentsline
\let\newlabel\oldnewlabel
\fi}
\fi}
\global\let\hyper@last\relax 
\gdef\HyperFirstAtBeginDocument#1{#1}
\providecommand\HyField@AuxAddToFields[1]{}
\providecommand\HyField@AuxAddToCoFields[2]{}
\@writefile{toc}{\contentsline {section}{Literatur}{1}{Doc-Start}}
\select@language{english}
\@writefile{toc}{\select@language{english}}
\@writefile{lof}{\select@language{english}}
\@writefile{lot}{\select@language{english}}
\@writefile{lof}{\contentsline {figure}{\numberline {1}{\ignorespaces Team of EduRobotica\relax }}{1}{figure.0.1}}
\providecommand*\caption@xref[2]{\@setref\relax\@undefined{#1}}
\newlabel{fig:figure1}{{1}{1}{Team of EduRobotica\relax }{figure.0.1}{}}
\@writefile{toc}{\contentsline {chapter}{\numberline {1}Introduction}{1}{chapter.1}}
\@writefile{lof}{\addvspace {10\p@ }}
\@writefile{lot}{\addvspace {10\p@ }}
\@writefile{toc}{\contentsline {chapter}{\numberline {2}Package information}{2}{chapter.2}}
\@writefile{lof}{\addvspace {10\p@ }}
\@writefile{lot}{\addvspace {10\p@ }}
\@writefile{toc}{\contentsline {section}{\numberline {2.1}MSP-EXP432P401R SimpleLink™ MSP432P401R LaunchPad}{3}{section.2.1}}
\@writefile{lof}{\contentsline {figure}{\numberline {2.1}{\ignorespaces MSP-EXP432P401R\relax }}{3}{figure.2.1}}
\newlabel{fig:figure2}{{2.1}{3}{MSP-EXP432P401R\relax }{figure.2.1}{}}
\@writefile{toc}{\contentsline {section}{\numberline {2.2}BOOSTXL-CC2650MA BoosterPack}{5}{section.2.2}}
\@writefile{lof}{\contentsline {figure}{\numberline {2.2}{\ignorespaces BOOSTXL-CC2650MA BoosterPack\relax }}{5}{figure.2.2}}
\newlabel{fig:figure3}{{2.2}{5}{BOOSTXL-CC2650MA BoosterPack\relax }{figure.2.2}{}}
\@writefile{toc}{\contentsline {section}{\numberline {2.3}BEAGLEBK BeagleBone Black Development Board}{6}{section.2.3}}
\newlabel{fig:figure4}{{2.3}{6}{}{figure.2.3}{}}
\@writefile{toc}{\contentsline {section}{\numberline {2.4}Pololu Romi Chassi}{7}{section.2.4}}
\@writefile{lof}{\contentsline {figure}{\numberline {2.4}{\ignorespaces Pololu Chassi\relax }}{8}{figure.2.4}}
\newlabel{fig:figure5}{{2.4}{8}{Pololu Chassi\relax }{figure.2.4}{}}
\@writefile{toc}{\contentsline {section}{\numberline {2.5}Joystick}{9}{section.2.5}}
\@writefile{lof}{\contentsline {figure}{\numberline {2.5}{\ignorespaces Joystick\relax }}{9}{figure.2.5}}
\newlabel{fig:figure5}{{2.5}{9}{Joystick\relax }{figure.2.5}{}}
\@writefile{toc}{\contentsline {chapter}{\numberline {3}Theory}{10}{chapter.3}}
\@writefile{lof}{\addvspace {10\p@ }}
\@writefile{lot}{\addvspace {10\p@ }}
\@writefile{toc}{\contentsline {section}{\numberline {3.1}Pulse-Width-Modulation}{10}{section.3.1}}
\newlabel{fig:figure6}{{3.1}{10}{}{figure.3.1}{}}
\@writefile{toc}{\contentsline {section}{\numberline {3.2}Digital Analog Converter}{11}{section.3.2}}
\@writefile{lof}{\contentsline {figure}{\numberline {3.2}{\ignorespaces Picture of a analog Signal interpreted in terms of digital value (discrete)\relax }}{11}{figure.3.2}}
\newlabel{fig:figure5}{{3.2}{11}{Picture of a analog Signal interpreted in terms of digital value (discrete)\relax }{figure.3.2}{}}
\@writefile{toc}{\contentsline {section}{\numberline {3.3}GPIO interrupts}{12}{section.3.3}}
\@writefile{toc}{\contentsline {section}{\numberline {3.4}Bluetooth Low Energy}{12}{section.3.4}}
\@writefile{toc}{\contentsline {section}{\numberline {3.5}Real Time Operating Systems - RTOS}{12}{section.3.5}}
\@writefile{toc}{\contentsline {chapter}{\numberline {4}Assembly of the Robot}{15}{chapter.4}}
\@writefile{lof}{\addvspace {10\p@ }}
\@writefile{lot}{\addvspace {10\p@ }}
\@writefile{toc}{\contentsline {section}{\numberline {4.1}Kits}{15}{section.4.1}}
\@writefile{lof}{\contentsline {figure}{\numberline {4.1}{\ignorespaces Premium version of Ludwig 1\relax }}{16}{figure.4.1}}
\newlabel{fig:figure7}{{4.1}{16}{Premium version of Ludwig 1\relax }{figure.4.1}{}}
\@writefile{lof}{\contentsline {figure}{\numberline {4.2}{\ignorespaces Basic version of Ludwig 1\relax }}{17}{figure.4.2}}
\newlabel{fig:figure7}{{4.2}{17}{Basic version of Ludwig 1\relax }{figure.4.2}{}}
\@writefile{toc}{\contentsline {section}{\numberline {4.2}Partlist}{17}{section.4.2}}
\@writefile{toc}{\contentsline {section}{\numberline {4.3}Assembly of the main board}{18}{section.4.3}}
\@writefile{lof}{\contentsline {figure}{\numberline {4.3}{\ignorespaces Wiring of the motor control\relax }}{19}{figure.4.3}}
\newlabel{fig:figure7}{{4.3}{19}{Wiring of the motor control\relax }{figure.4.3}{}}
\@writefile{lof}{\contentsline {figure}{\numberline {4.4}{\ignorespaces Assembly of the Board with the wires connected from the Power Board\relax }}{20}{figure.4.4}}
\newlabel{fig:figure8}{{4.4}{20}{Assembly of the Board with the wires connected from the Power Board\relax }{figure.4.4}{}}
\@writefile{lof}{\contentsline {figure}{\numberline {4.5}{\ignorespaces Mounting of the joystick, front holder, and Launchpad\relax }}{21}{figure.4.5}}
\newlabel{fig:figure9}{{4.5}{21}{Mounting of the joystick, front holder, and Launchpad\relax }{figure.4.5}{}}
\@writefile{lof}{\contentsline {figure}{\numberline {4.6}{\ignorespaces Connecting the BLE stack\relax }}{22}{figure.4.6}}
\newlabel{fig:figure10}{{4.6}{22}{Connecting the BLE stack\relax }{figure.4.6}{}}
\@writefile{lot}{\contentsline {table}{\numberline {4.1}{\ignorespaces Pinrow 01:\relax }}{22}{table.4.1}}
\@writefile{lot}{\contentsline {table}{\numberline {4.2}{\ignorespaces Pinrow 21:\relax }}{22}{table.4.2}}
\@writefile{lot}{\contentsline {table}{\numberline {4.3}{\ignorespaces Pinrow 40:\relax }}{23}{table.4.3}}
\@writefile{lot}{\contentsline {table}{\numberline {4.4}{\ignorespaces Pinrow 20:\relax }}{23}{table.4.4}}
\@writefile{lof}{\contentsline {figure}{\numberline {4.7}{\ignorespaces Connecting all Wires to the Board\relax }}{24}{figure.4.7}}
\newlabel{fig:figure11}{{4.7}{24}{Connecting all Wires to the Board\relax }{figure.4.7}{}}
\@writefile{lof}{\contentsline {figure}{\numberline {4.8}{\ignorespaces Final mounting of the shield\relax }}{25}{figure.4.8}}
\newlabel{fig:figure12}{{4.8}{25}{Final mounting of the shield\relax }{figure.4.8}{}}
\@input{bluetooth-network.aux}
\@input{troubleshooting-philipp.aux}
\@writefile{toc}{\contentsline {chapter}{\numberline {7}Code}{34}{chapter.7}}
\@writefile{lof}{\addvspace {10\p@ }}
\@writefile{lot}{\addvspace {10\p@ }}
\@writefile{toc}{\contentsline {section}{\numberline {7.1}MSP432}{34}{section.7.1}}
\@writefile{toc}{\contentsline {subsection}{\numberline {7.1.1}adc.c}{34}{subsection.7.1.1}}
\@writefile{toc}{\contentsline {subsection}{\numberline {7.1.2}adc.h}{38}{subsection.7.1.2}}
\@writefile{toc}{\contentsline {subsection}{\numberline {7.1.3}Board.h}{38}{subsection.7.1.3}}
\@writefile{toc}{\contentsline {subsection}{\numberline {7.1.4}hall.c}{42}{subsection.7.1.4}}
\@writefile{toc}{\contentsline {subsection}{\numberline {7.1.5}hall.h}{45}{subsection.7.1.5}}
\@writefile{toc}{\contentsline {subsection}{\numberline {7.1.6}main-tirtos.c}{45}{subsection.7.1.6}}
\@writefile{toc}{\contentsline {subsection}{\numberline {7.1.7}MSP-EXP432P401R.c}{47}{subsection.7.1.7}}
\@writefile{toc}{\contentsline {subsection}{\numberline {7.1.8}MSP-EXP432P401R.h}{66}{subsection.7.1.8}}
\@writefile{toc}{\contentsline {subsection}{\numberline {7.1.9}MSP-EXP432P401R-TIRTOS.cmd}{71}{subsection.7.1.9}}
\@writefile{toc}{\contentsline {subsection}{\numberline {7.1.10}position.c}{73}{subsection.7.1.10}}
\@writefile{toc}{\contentsline {subsection}{\numberline {7.1.11}position.h}{76}{subsection.7.1.11}}
\@writefile{toc}{\contentsline {subsection}{\numberline {7.1.12}pwm.c}{76}{subsection.7.1.12}}
\@writefile{toc}{\contentsline {subsection}{\numberline {7.1.13}pwm.h}{80}{subsection.7.1.13}}
\@writefile{toc}{\contentsline {subsection}{\numberline {7.1.14}simple-application-processor.c}{80}{subsection.7.1.14}}
\@writefile{toc}{\contentsline {subsection}{\numberline {7.1.15}simple-application-processor.h}{101}{subsection.7.1.15}}
\@writefile{toc}{\contentsline {subsection}{\numberline {7.1.16}simple-application-processor-params.c}{105}{subsection.7.1.16}}
\@writefile{toc}{\contentsline {section}{\numberline {7.2}BeagleBoneBlack}{106}{section.7.2}}
\@writefile{toc}{\contentsline {subsection}{\numberline {7.2.1}connect.py}{106}{subsection.7.2.1}}
\@writefile{toc}{\contentsline {subsection}{\numberline {7.2.2}msp.c}{109}{subsection.7.2.2}}
\@writefile{toc}{\contentsline {chapter}{\numberline {8}Further Readings}{114}{chapter.8}}
\@writefile{lof}{\addvspace {10\p@ }}
\@writefile{lot}{\addvspace {10\p@ }}
\@writefile{toc}{\contentsline {chapter}{\numberline {9}Building instructions for the cupboard}{115}{chapter.9}}
\@writefile{lof}{\addvspace {10\p@ }}
\@writefile{lot}{\addvspace {10\p@ }}
\@writefile{lof}{\contentsline {figure}{\numberline {9.1}{\ignorespaces Building instructions of the cupboard\relax }}{115}{figure.9.1}}
\newlabel{fig:figure12}{{9.1}{115}{Building instructions of the cupboard\relax }{figure.9.1}{}}
