\BOOKMARK [0][-]{chapter.1}{Introduction}{}% 2
\BOOKMARK [0][-]{chapter.2}{Package information}{}% 3
\BOOKMARK [1][-]{section.2.1}{MSP-EXP432P401R SimpleLink™ MSP432P401R LaunchPad}{chapter.2}% 4
\BOOKMARK [1][-]{section.2.2}{BOOSTXL-CC2650MA BoosterPack}{chapter.2}% 5
\BOOKMARK [1][-]{section.2.3}{BEAGLEBK BeagleBone Black Development Board}{chapter.2}% 6
\BOOKMARK [1][-]{section.2.4}{Pololu Romi Chassi}{chapter.2}% 7
\BOOKMARK [1][-]{section.2.5}{Joystick}{chapter.2}% 8
\BOOKMARK [0][-]{chapter.3}{Theory}{}% 9
\BOOKMARK [1][-]{section.3.1}{Pulse-Width-Modulation}{chapter.3}% 10
\BOOKMARK [1][-]{section.3.2}{Digital Analog Converter}{chapter.3}% 11
\BOOKMARK [1][-]{section.3.3}{GPIO interrupts}{chapter.3}% 12
\BOOKMARK [1][-]{section.3.4}{Bluetooth Low Energy}{chapter.3}% 13
\BOOKMARK [1][-]{section.3.5}{Real Time Operating Systems - RTOS}{chapter.3}% 14
\BOOKMARK [0][-]{chapter.4}{Assembly of the Robot}{}% 15
\BOOKMARK [1][-]{section.4.1}{Kits}{chapter.4}% 16
\BOOKMARK [1][-]{section.4.2}{Partlist}{chapter.4}% 17
\BOOKMARK [1][-]{section.4.3}{Assembly of the main board}{chapter.4}% 18
\BOOKMARK [0][-]{chapter.5}{}{}% 19
\BOOKMARK [1][-]{section.5.1}{The main of the TI-RTOS}{chapter.5}% 20
\BOOKMARK [2][-]{subsection.5.1.1}{main tirtos}{section.5.1}% 21
\BOOKMARK [2][-]{subsection.5.1.2}{adc}{section.5.1}% 22
\BOOKMARK [2][-]{subsection.5.1.3}{pwm}{section.5.1}% 23
\BOOKMARK [2][-]{subsection.5.1.4}{position}{section.5.1}% 24
\BOOKMARK [2][-]{subsection.5.1.5}{hall}{section.5.1}% 25
\BOOKMARK [1][-]{section.5.2}{Board Specific files and Configurations}{chapter.5}% 26
\BOOKMARK [2][-]{subsection.5.2.1}{Board}{section.5.2}% 27
\BOOKMARK [2][-]{subsection.5.2.2}{MSP EXP432P401R header file}{section.5.2}% 28
\BOOKMARK [2][-]{subsection.5.2.3}{MSP EXP432P401R c file}{section.5.2}% 29
\BOOKMARK [0][-]{chapter.6}{Bluetooth-Network}{}% 30
\BOOKMARK [1][-]{section.6.1}{Goal}{chapter.6}% 31
\BOOKMARK [1][-]{section.6.2}{Setting up the Beaglebone}{chapter.6}% 32
\BOOKMARK [2][-]{subsection.6.2.1}{Flashing the latest firmware}{section.6.2}% 33
\BOOKMARK [2][-]{subsection.6.2.2}{Accessing the Beaglebone via ssh}{section.6.2}% 34
\BOOKMARK [2][-]{subsection.6.2.3}{Basic Terminal commands}{section.6.2}% 35
\BOOKMARK [2][-]{subsection.6.2.4}{Internet connection with the Beaglebone}{section.6.2}% 36
\BOOKMARK [2][-]{subsection.6.2.5}{Downloading and installing required packages}{section.6.2}% 37
\BOOKMARK [1][-]{section.6.3}{Bluetooth Experiments}{chapter.6}% 38
\BOOKMARK [2][-]{subsection.6.3.1}{Check functionality with hci- and gatttool}{section.6.3}% 39
\BOOKMARK [2][-]{subsection.6.3.2}{python-scripting}{section.6.3}% 40
\BOOKMARK [1][-]{section.6.4}{Writing the python code}{chapter.6}% 41
\BOOKMARK [1][-]{section.6.5}{Visualising the data}{chapter.6}% 42
\BOOKMARK [0][-]{chapter.7}{Troubleshooting}{}% 43
\BOOKMARK [1][-]{section.7.1}{ssh doesn't work}{chapter.7}% 44
\BOOKMARK [2][-]{subsection.7.1.1}{ssh installed?}{section.7.1}% 45
\BOOKMARK [2][-]{subsection.7.1.2}{Cable correctly connected?}{section.7.1}% 46
\BOOKMARK [2][-]{subsection.7.1.3}{no dhcp connection?}{section.7.1}% 47
\BOOKMARK [1][-]{section.7.2}{Beaglebone: no LAN-connection possible}{chapter.7}% 48
\BOOKMARK [1][-]{section.7.3}{sudo won't let me execute commands}{chapter.7}% 49
\BOOKMARK [1][-]{section.7.4}{git clone throws an error}{chapter.7}% 50
\BOOKMARK [0][-]{chapter.8}{Further Readings}{}% 51
\BOOKMARK [0][-]{chapter.9}{Building instructions for the cupboard}{}% 52
