\BOOKMARK [0][-]{chapter.1}{Introduction}{}% 2
\BOOKMARK [0][-]{chapter.2}{Package information}{}% 3
\BOOKMARK [1][-]{section.2.1}{MSP-EXP432P401R SimpleLink™ MSP432P401R LaunchPad}{chapter.2}% 4
\BOOKMARK [1][-]{section.2.2}{BOOSTXL-CC2650MA BoosterPack}{chapter.2}% 5
\BOOKMARK [1][-]{section.2.3}{BEAGLEBK BeagleBone Black Development Board}{chapter.2}% 6
\BOOKMARK [1][-]{section.2.4}{Pololu Romi Chassi}{chapter.2}% 7
\BOOKMARK [1][-]{section.2.5}{Joystick}{chapter.2}% 8
\BOOKMARK [0][-]{chapter.3}{Theory}{}% 9
\BOOKMARK [1][-]{section.3.1}{Pulse-Width-Modulation}{chapter.3}% 10
\BOOKMARK [1][-]{section.3.2}{Digital Analog Converter}{chapter.3}% 11
\BOOKMARK [1][-]{section.3.3}{GPIO interrupts}{chapter.3}% 12
\BOOKMARK [1][-]{section.3.4}{Bluetooth Low Energy}{chapter.3}% 13
\BOOKMARK [1][-]{section.3.5}{Real Time Operating Systems - RTOS}{chapter.3}% 14
\BOOKMARK [0][-]{chapter.4}{Assembly of the Robot}{}% 15
\BOOKMARK [1][-]{section.4.1}{Kits}{chapter.4}% 16
\BOOKMARK [1][-]{section.4.2}{Partlist}{chapter.4}% 17
\BOOKMARK [1][-]{section.4.3}{Assembly of the main board}{chapter.4}% 18
\BOOKMARK [0][-]{chapter.5}{Bluetooth-Network}{}% 19
\BOOKMARK [1][-]{section.5.1}{Goal}{chapter.5}% 20
\BOOKMARK [1][-]{section.5.2}{Setting up the Beaglebone}{chapter.5}% 21
\BOOKMARK [2][-]{subsection.5.2.1}{Flashing the latest firmware}{section.5.2}% 22
\BOOKMARK [2][-]{subsection.5.2.2}{Accessing the Beaglebone via ssh}{section.5.2}% 23
\BOOKMARK [2][-]{subsection.5.2.3}{Basic Terminal commands}{section.5.2}% 24
\BOOKMARK [2][-]{subsection.5.2.4}{Internet connection with the Beaglebone}{section.5.2}% 25
\BOOKMARK [2][-]{subsection.5.2.5}{Downloading and installing required packages}{section.5.2}% 26
\BOOKMARK [1][-]{section.5.3}{Bluetooth Experiments}{chapter.5}% 27
\BOOKMARK [2][-]{subsection.5.3.1}{Check functionality with hci- and gatttool}{section.5.3}% 28
\BOOKMARK [2][-]{subsection.5.3.2}{python-scripting}{section.5.3}% 29
\BOOKMARK [1][-]{section.5.4}{Writing the python code}{chapter.5}% 30
\BOOKMARK [1][-]{section.5.5}{Visualising the data}{chapter.5}% 31
\BOOKMARK [0][-]{chapter.6}{Troubleshooting}{}% 32
\BOOKMARK [1][-]{section.6.1}{ssh doesn't work}{chapter.6}% 33
\BOOKMARK [2][-]{subsection.6.1.1}{ssh installed?}{section.6.1}% 34
\BOOKMARK [2][-]{subsection.6.1.2}{Cable correctly connected?}{section.6.1}% 35
\BOOKMARK [2][-]{subsection.6.1.3}{no dhcp connection?}{section.6.1}% 36
\BOOKMARK [1][-]{section.6.2}{Beaglebone: no LAN-connection possible}{chapter.6}% 37
\BOOKMARK [1][-]{section.6.3}{sudo won't let me execute commands}{chapter.6}% 38
\BOOKMARK [1][-]{section.6.4}{git clone throws an error}{chapter.6}% 39
\BOOKMARK [0][-]{chapter.7}{Code}{}% 40
\BOOKMARK [1][-]{section.7.1}{MSP432}{chapter.7}% 41
\BOOKMARK [2][-]{subsection.7.1.1}{adc.c}{section.7.1}% 42
\BOOKMARK [2][-]{subsection.7.1.2}{adc.h}{section.7.1}% 43
\BOOKMARK [2][-]{subsection.7.1.3}{Board.h}{section.7.1}% 44
\BOOKMARK [2][-]{subsection.7.1.4}{hall.c}{section.7.1}% 45
\BOOKMARK [2][-]{subsection.7.1.5}{hall.h}{section.7.1}% 46
\BOOKMARK [2][-]{subsection.7.1.6}{main-tirtos.c}{section.7.1}% 47
\BOOKMARK [2][-]{subsection.7.1.7}{MSP-EXP432P401R.c}{section.7.1}% 48
\BOOKMARK [2][-]{subsection.7.1.8}{MSP-EXP432P401R.h}{section.7.1}% 49
\BOOKMARK [2][-]{subsection.7.1.9}{MSP-EXP432P401R-TIRTOS.cmd}{section.7.1}% 50
\BOOKMARK [2][-]{subsection.7.1.10}{position.c}{section.7.1}% 51
\BOOKMARK [2][-]{subsection.7.1.11}{position.h}{section.7.1}% 52
\BOOKMARK [2][-]{subsection.7.1.12}{pwm.c}{section.7.1}% 53
\BOOKMARK [2][-]{subsection.7.1.13}{pwm.h}{section.7.1}% 54
\BOOKMARK [2][-]{subsection.7.1.14}{simple-application-processor.c}{section.7.1}% 55
\BOOKMARK [2][-]{subsection.7.1.15}{simple-application-processor.h}{section.7.1}% 56
\BOOKMARK [2][-]{subsection.7.1.16}{simple-application-processor-params.c}{section.7.1}% 57
\BOOKMARK [1][-]{section.7.2}{BeagleBoneBlack}{chapter.7}% 58
\BOOKMARK [2][-]{subsection.7.2.1}{connect.py}{section.7.2}% 59
\BOOKMARK [2][-]{subsection.7.2.2}{msp.c}{section.7.2}% 60
\BOOKMARK [0][-]{chapter.8}{Further Readings}{}% 61
\BOOKMARK [0][-]{chapter.9}{Building instructions for the cupboard}{}% 62
