\relax 
\providecommand\hyper@newdestlabel[2]{}
\@writefile{toc}{\contentsline {chapter}{\numberline {7}Troubleshooting}{70}{chapter.7}}
\@writefile{lof}{\addvspace {10\p@ }}
\@writefile{lot}{\addvspace {10\p@ }}
\@writefile{toc}{\contentsline {section}{\numberline {7.1}ssh doesn't work}{70}{section.7.1}}
\@writefile{toc}{\contentsline {subsection}{\numberline {7.1.1}ssh installed?}{70}{subsection.7.1.1}}
\@writefile{toc}{\contentsline {subsection}{\numberline {7.1.2}Cable correctly connected?}{70}{subsection.7.1.2}}
\@writefile{toc}{\contentsline {subsection}{\numberline {7.1.3}no dhcp connection?}{70}{subsection.7.1.3}}
\@writefile{toc}{\contentsline {section}{\numberline {7.2}Beaglebone: no LAN-connection possible}{71}{section.7.2}}
\@writefile{toc}{\contentsline {section}{\numberline {7.3}sudo won't let me execute commands}{71}{section.7.3}}
\@writefile{toc}{\contentsline {section}{\numberline {7.4}git clone throws an error}{72}{section.7.4}}
\@setckpt{troubleshooting-philipp}{
\setcounter{page}{73}
\setcounter{equation}{0}
\setcounter{enumi}{5}
\setcounter{enumii}{0}
\setcounter{enumiii}{0}
\setcounter{enumiv}{0}
\setcounter{footnote}{0}
\setcounter{mpfootnote}{0}
\setcounter{part}{0}
\setcounter{chapter}{7}
\setcounter{section}{4}
\setcounter{subsection}{0}
\setcounter{subsubsection}{0}
\setcounter{paragraph}{0}
\setcounter{subparagraph}{0}
\setcounter{figure}{0}
\setcounter{table}{0}
\setcounter{List1}{0}
\setcounter{List2}{0}
\setcounter{List3}{0}
\setcounter{List4}{0}
\setcounter{List5}{0}
\setcounter{List6}{0}
\setcounter{List7}{0}
\setcounter{List8}{0}
\setcounter{List9}{0}
\setcounter{List10}{0}
\setcounter{ContinuedFloat}{0}
\setcounter{Item}{5}
\setcounter{Hfootnote}{8}
\setcounter{bookmark@seq@number}{50}
\setcounter{float@type}{8}
\setcounter{FancyVerbLine}{1}
\setcounter{lstnumber}{725}
\setcounter{section@level}{1}
\setcounter{lstlisting}{0}
}
